﻿thisRow.t,notes,welcome.started,welcome_message.started,spacebar.started,welcome.stopped,spacebar.keys,spacebar.rt,spacebar.duration,instructions_general.started,text.started,key_resp.started,text.stopped,key_resp.stopped,instructions_general.stopped,key_resp.keys,instruction_shape.started,text_3.started,key_resp_3.started,image.started,image_2.started,image_3.started,instruction_shape.stopped,key_resp_3.keys,key_resp_3.rt,key_resp_3.duration,trial.started,practice_trial_square.started,practice_trial_plus.started,practice_trial_cross.started,trial_keyboard_response.started,left_far_tile.started,left_mid_tile.started,right_mid_tile.started,right_far_tile.started,targetsquare.started,targetsquare.stopped,trial.stopped,trial_keyboard_response.keys,trial_keyboard_response.rt,trial_keyboard_response.duration,end_screen.started,text_2.started,key_resp_2.started,end_screen.stopped,key_resp_2.keys,key_resp_2.rt,key_resp_2.duration,participant,session,age,gender,lefthanded,likey,date,expName,psychopyVersion,frameRate,expStart,
,,2.07386410003528,3.3467096000676975,3.3467096000676975,5.266830499982461,space,1.9154700000071898,None,,,,,,,,,,,,,,,,,,,,,,,,,,,,,,,,,,,,,,,,1,001,11,ff,False,yes,2024-02-13_13h40.53.106,choice_rtt,2023.2.3,60.07474496537983,2024-02-13 13h41.18.274461 +0100,
,,,,,,,,,5.266908899997361,5.281796500086784,10.280956600094214,25.32667219999712,25.32667219999712,25.26551230007317,None,,,,,,,,,,,,,,,,,,,,,,,,,,,,,,,,,1,001,11,ff,False,yes,2024-02-13_13h40.53.106,choice_rtt,2023.2.3,60.07474496537983,2024-02-13 13h41.18.274461 +0100,
,,,,,,,,,,,,,,,,25.265603100066073,25.32667219999712,25.32667219999712,25.32667219999712,25.32667219999712,25.32667219999712,44.88416690006852,space,19.553503000061028,None,,,,,,,,,,,,,,,,,,,,,,,1,001,11,ff,False,yes,2024-02-13_13h40.53.106,choice_rtt,2023.2.3,60.07474496537983,2024-02-13 13h41.18.274461 +0100,
,,,,,,,,,,,,,,,,,,,,,,,,,,44.8842451000819,44.9151603000937,44.9151603000937,44.9151603000937,44.9151603000937,45.39842320000753,45.39842320000753,45.39842320000753,45.39842320000753,45.6051834000973,45.81389330001548,47.58280030009337,c,2.6525717999320477,None,,,,,,,,1,001,11,ff,False,yes,2024-02-13_13h40.53.106,choice_rtt,2023.2.3,60.07474496537983,2024-02-13 13h41.18.274461 +0100,
,,,,,,,,,,,,,,,,,,,,,,,,,,,,,,,,,,,,,,,,,47.582882300019264,47.59658240003046,48.596618300070986,49.2819799000863,space,0.6710666000144556,None,1,001,11,ff,False,yes,2024-02-13_13h40.53.106,choice_rtt,2023.2.3,60.07474496537983,2024-02-13 13h41.18.274461 +0100,
