﻿TargetImage,trials_loop.thisRepN,trials_loop.thisTrialN,trials_loop.thisN,trials_loop.thisIndex,thisRow.t,notes,welcome.started,welcome_message.started,spacebar.started,welcome.stopped,spacebar.keys,instructions_general.started,text.started,key_resp.started,instructions_general.stopped,key_resp.keys,key_resp.rt,key_resp.duration,instruction_shape.started,text_3.started,key_resp_3.started,image.started,image_2.started,image_3.started,instruction_shape.stopped,key_resp_3.keys,key_resp_3.rt,key_resp_3.duration,trial.started,practice_trial_square.started,practice_trial_plus.started,practice_trial_cross.started,trial_keyboard_response.started,left_far_tile.started,left_mid_tile.started,right_mid_tile.started,right_far_tile.started,targetsquare.started,targetsquare.stopped,trial.stopped,trial_keyboard_response.keys,trial_keyboard_response.rt,trial_keyboard_response.duration,end_screen.started,text_2.started,key_resp_2.started,end_screen.stopped,key_resp_2.keys,key_resp_2.rt,key_resp_2.duration,participant,session,age,gender,lefthanded,likey,date,expName,psychopyVersion,frameRate,expStart,
,,,,,,,2.021643599960953,3.2893408000236377,3.2893408000236377,10.00861719995737,None,,,,,,,,,,,,,,,,,,,,,,,,,,,,,,,,,,,,,,,,1,001,11,f,False,yes,2024-02-13_14h11.56.632,choice_rtt,2023.2.3,59.921969589057746,2024-02-13 14h12.17.237819 +0100,
,,,,,,,,,,,,10.008681499981321,10.025881699984893,15.00921719998587,29.84419119998347,space,14.82330859999638,None,,,,,,,,,,,,,,,,,,,,,,,,,,,,,,,,,1,001,11,f,False,yes,2024-02-13_14h11.56.632,choice_rtt,2023.2.3,59.921969589057746,2024-02-13 14h12.17.237819 +0100,
,,,,,,,,,,,,,,,,,,,29.8442258000141,29.900236499961466,29.900236499961466,29.900236499961466,29.900236499961466,29.900236499961466,31.26157960004639,space,1.3510306000243872,None,,,,,,,,,,,,,,,,,,,,,,,1,001,11,f,False,yes,2024-02-13_14h11.56.632,choice_rtt,2023.2.3,59.921969589057746,2024-02-13 14h12.17.237819 +0100,
../../stimuli/shapes/target_plus.jpg,0,0,0,4,31.43799410003703,,,,,,,,,,,,,,,,,,,,,,,,31.28616909997072,31.43799410003703,31.43799410003703,31.43799410003703,31.43799410003703,31.777037600055337,31.777037600055337,31.777037600055337,31.777037600055337,31.98542499996256,32.19232420006301,34.51130650006235,c,3.065869100042619,None,,,,,,,,1,001,11,f,False,yes,2024-02-13_14h11.56.632,choice_rtt,2023.2.3,59.921969589057746,2024-02-13 14h12.17.237819 +0100,
../../stimuli/shapes/target_cross.jpg,0,1,1,3,34.663606200017966,,,,,,,,,,,,,,,,,,,,,,,,34.52280859998427,34.663606200017966,34.663606200017966,34.663606200017966,34.663606200017966,35.02553009998519,35.02553009998519,35.02553009998519,35.02553009998519,35.2269272999838,35.44222660001833,37.57781549997162,c,2.9030948999570683,None,,,,,,,,1,001,11,f,False,yes,2024-02-13_14h11.56.632,choice_rtt,2023.2.3,59.921969589057746,2024-02-13 14h12.17.237819 +0100,
../../stimuli/shapes/target_cross.jpg,0,2,2,1,37.7227287000278,,,,,,,,,,,,,,,,,,,,,,,,37.57927159999963,37.7227287000278,37.7227287000278,37.7227287000278,37.7227287000278,38.09218789997976,38.09218789997976,38.09218789997976,38.09218789997976,38.293513000011444,38.50888990005478,38.87802509998437,c,1.137216900009662,None,,,,,,,,1,001,11,f,False,yes,2024-02-13_14h11.56.632,choice_rtt,2023.2.3,59.921969589057746,2024-02-13 14h12.17.237819 +0100,
../../stimuli/shapes/target_square.jpg,0,3,3,5,38.98338770004921,,,,,,,,,,,,,,,,,,,,,,,,38.87948390003294,38.98338770004921,38.98338770004921,38.98338770004921,38.98338770004921,39.39215390000027,39.39215390000027,39.39215390000027,39.39215390000027,39.593488199985586,39.792191199958324,40.92801140004303,v,1.9401926998980343,None,,,,,,,,1,001,11,f,False,yes,2024-02-13_14h11.56.632,choice_rtt,2023.2.3,59.921969589057746,2024-02-13 14h12.17.237819 +0100,
../../stimuli/shapes/target_square.jpg,0,4,4,2,41.0362667000154,,,,,,,,,,,,,,,,,,,,,,,,40.92946750007104,41.0362667000154,41.0362667000154,41.0362667000154,41.0362667000154,41.44208940002136,41.44208940002136,41.44208940002136,41.44208940002136,41.6434978999896,41.85884380002972,42.27775859995745,v,1.224305999930948,None,,,,,,,,1,001,11,f,False,yes,2024-02-13_14h11.56.632,choice_rtt,2023.2.3,59.921969589057746,2024-02-13 14h12.17.237819 +0100,
../../stimuli/shapes/target_plus.jpg,0,5,5,0,42.428393200039864,,,,,,,,,,,,,,,,,,,,,,,,42.27921980002429,42.428393200039864,42.428393200039864,42.428393200039864,42.428393200039864,42.79203360003885,42.79203360003885,42.79203360003885,42.79203360003885,42.99338890006766,43.19203410006594,43.74495099997148,c,1.3121805000118911,None,,,,,,,,1,001,11,f,False,yes,2024-02-13_14h11.56.632,choice_rtt,2023.2.3,59.921969589057746,2024-02-13 14h12.17.237819 +0100,
,,,,,,,,,,,,,,,,,,,,,,,,,,,,,,,,,,,,,,,,,,,,43.74593239999376,43.75815600005444,44.757980499998666,44.9935320999939,space,0.22437840001657605,None,1,001,11,f,False,yes,2024-02-13_14h11.56.632,choice_rtt,2023.2.3,59.921969589057746,2024-02-13 14h12.17.237819 +0100,
